{
  "_note1": "KEEP THIS FILE! Check it into a version control system (VCS) like git.",
  "_note2": "ObjectBox manages crucial IDs for your object model. See docs for details.",
  "_note3": "If you have VCS merge conflicts, you must resolve them according to ObjectBox docs.",
  "entities": [
    {
      "id": "1:3930770730307843451",
      "lastPropertyId": "4:3676361842792007796",
      "name": "Note",
      "properties": [
        {
          "id": "1:1361795374569057280",
          "name": "id",
          "type": 6,
          "flags": 1
        },
        {
          "id": "2:1807245863479930326",
          "name": "title",
          "type": 9
        },
        {
          "id": "3:408528483758070055",
          "name": "description",
          "type": 9
        },
        {
          "id": "4:3676361842792007796",
          "name": "createdDate",
          "type": 10
        }
      ],
      "relations": []
    }
  ],
  "lastEntityId": "1:3930770730307843451",
  "lastIndexId": "0:0",
  "lastRelationId": "0:0",
  "lastSequenceId": "0:0",
  "modelVersion": 5,
  "modelVersionParserMinimum": 5,
  "retiredEntityUids": [],
  "retiredIndexUids": [],
  "retiredPropertyUids": [],
  "retiredRelationUids": [],
  "version": 1
}